{
    "count": 5282,
    "next": "https://www.disgenet.org/api/vda/evidences/disease/C0002395?format=json&format=json&limit=10&max_score=0.8&max_score=0.8&min_score=0.2&min_score=0.2&offset=10",
    "previous": null,
    "results": [
        {
            "variant_id": "rs1007837",
            "disease_id": "C0002395",
            "gene_id": 9846,
            "gene_symbol": "GAB2",
            "disease_name": "Alzheimer's Disease",
            "sentence": "GAB2 alleles modify Alzheimer's risk in APOE epsilon4 carriers.",
            "associationtype": "GeneticVariation",
            "source": "CURATED",
            "pmid": 17553421,
            "year": 2007,
            "score": 0.7
        },
        {
            "variant_id": "rs1007837",
            "disease_id": "C0002395",
            "gene_id": 9846,
            "gene_symbol": "GAB2",
            "disease_name": "Alzheimer's Disease",
            "sentence": "GAB2 alleles modify Alzheimer's risk in APOE epsilon4 carriers.",
            "associationtype": "GeneticVariation",
            "source": "INFERRED",
            "pmid": 17553421,
            "year": 2007,
            "score": 0.7
        },
        {
            "variant_id": "rs1007837",
            "disease_id": "C0002395",
            "gene_id": 9846,
            "gene_symbol": "GAB2",
            "disease_name": "Alzheimer's Disease",
            "sentence": "GAB2 alleles modify Alzheimer's risk in APOE epsilon4 carriers.",
            "associationtype": "GeneticVariation",
            "source": "ALL",
            "pmid": 17553421,
            "year": 2007,
            "score": 0.7
        },
        {
            "variant_id": "rs1007837",
            "disease_id": "C0002395",
            "gene_id": 9846,
            "gene_symbol": "GAB2",
            "disease_name": "Alzheimer's Disease",
            "sentence": "GAB2 alleles modify Alzheimer's risk in APOE epsilon4 carriers.",
            "associationtype": "GeneticVariation",
            "source": "GWASDB",
            "pmid": 17553421,
            "year": 2007,
            "score": 0.7
        },
        {
            "variant_id": "rs10078434",
            "disease_id": "C0002395",
            "gene_id": null,
            "gene_symbol": null,
            "disease_name": "Alzheimer's Disease",
            "sentence": "Genome-wide association study of Alzheimer's disease endophenotypes at prediagnosis stages.",
            "associationtype": "GeneticVariation",
            "source": "GWASCAT",
            "pmid": 29274321,
            "year": 2018,
            "score": 0.7
        },
        {
            "variant_id": "rs10078434",
            "disease_id": "C0002395",
            "gene_id": null,
            "gene_symbol": null,
            "disease_name": "Alzheimer's Disease",
            "sentence": "Genome-wide association study of Alzheimer's disease endophenotypes at prediagnosis stages.",
            "associationtype": "GeneticVariation",
            "source": "ALL",
            "pmid": 29274321,
            "year": 2018,
            "score": 0.7
        },
        {
            "variant_id": "rs10078434",
            "disease_id": "C0002395",
            "gene_id": null,
            "gene_symbol": null,
            "disease_name": "Alzheimer's Disease",
            "sentence": "Genome-wide association study of Alzheimer's disease endophenotypes at prediagnosis stages.",
            "associationtype": "GeneticVariation",
            "source": "CURATED",
            "pmid": 29274321,
            "year": 2018,
            "score": 0.7
        },
        {
            "variant_id": "rs10078434",
            "disease_id": "C0002395",
            "gene_id": null,
            "gene_symbol": null,
            "disease_name": "Alzheimer's Disease",
            "sentence": "Genome-wide association study of Alzheimer's disease endophenotypes at prediagnosis stages.",
            "associationtype": "GeneticVariation",
            "source": "INFERRED",
            "pmid": 29274321,
            "year": 2018,
            "score": 0.7
        },
        {
            "variant_id": "rs10098778",
            "disease_id": "C0002395",
            "gene_id": 137682,
            "gene_symbol": "NDUFAF6",
            "disease_name": "Alzheimer's Disease",
            "sentence": "Genome-wide association analysis of dementia and its clinical endophenotypes reveal novel loci associated with Alzheimer's disease and three causality networks: The GR@ACE project.",
            "associationtype": "GeneticVariation",
            "source": "GWASCAT",
            "pmid": 31473137,
            "year": 2019,
            "score": 0.7
        },
        {
            "variant_id": "rs10098778",
            "disease_id": "C0002395",
            "gene_id": 137682,
            "gene_symbol": "NDUFAF6",
            "disease_name": "Alzheimer's Disease",
            "sentence": "Genome-wide association analysis of dementia and its clinical endophenotypes reveal novel loci associated with Alzheimer's disease and three causality networks: The GR@ACE project.",
            "associationtype": "GeneticVariation",
            "source": "CURATED",
            "pmid": 31473137,
            "year": 2019,
            "score": 0.7
        }
    ]
}